0000    0.0    0.858
0001    0.0    0.858
0002    0.0    0.858
0003    0.0    0.858
0104    0.0    0.858
0105    0.0    0.858
0106    0.0    0.864
0107    0.0    0.858
0212    0.0    0.892
0213    0.0    0.858
0214    0.0    0.858
0215    0.0    0.858
0308    0.0    0.858
0309    0.0    0.858
0310    0.0    0.858
0311    0.0    0.858