0000   0    1.9
0001   0    1.9
0100   0    1.9
0101   0    1.9
0102   0    1.9
0201   0    1.9
0202   0    1.9
0203   0    1.9
0302   0    1.9
0303   0    1.9
0400   0    1.9
0401   0    1.9
0404   0    1.9
0405   0    1.9
0501   0    1.9
0502   0    1.9
0505   0    1.9
0506   0    1.9
0602   0    1.9
0603   0    1.9
0606   0    1.9
0607   0    1.9
0707   0    1.9
0804   0    1.9
0805   0    1.9
0808   0    1.9
0904   0    1.9
0905   0    1.9
0906   0    1.9
0909   0    1.9
0910   0    1.9
1005   0    1.9
1006   0    1.9
1007   0    1.9
1010   0    1.9
1011   0    1.9
1106   0    1.9
1107   0    1.9
1111   0    1.9
1208   0    1.9
1209   0    1.9
1309   0    1.9
1310   0    1.9
1410   0    1.9
1411   0    1.9
1511   0    1.9
1608   0    1.9
1612   0    1.9
1613   0    1.9
1709   0    1.9
1710   0    1.9
1712   0    1.9
1713   0    1.9
1714   0    1.9
1810   0    1.9
1811   0    1.9
1813   0    1.9
1814   0    1.9
1815   0    1.9
1911   0    1.9
1914   0    1.9
1915   0    1.9
2012   0    1.9
2013   0    1.9
2016   0    1.9
2017   0    1.9
2113   0    1.9
2114   0    1.9
2117   0    1.9
2118   0    1.9
2214   0    1.9
2215   0    1.9
2218   0    1.9
2219   0    1.9
2315   0    1.9
2416   0    1.9
2417   0    1.9
2516   0    1.9
2517   0    1.9
2518   0    1.9
2617   0    1.9
2618   0    1.9
2619   0    1.9
2718   0    1.9
2719   0    1.9
2820   0    1.9
2821   0    1.9
2920   0    1.9
2921   0    1.9
2922   0    1.9
3021   0    1.9
3022   0    1.9
3023   0    1.9
3122   0    1.9
3123   0    1.9
3224   0    1.9
3320   0    1.9
3321   0    1.9
3324   0    1.9
3325   0    1.9
3421   0    1.9
3422   0    1.9
3425   0    1.9
3426   0    1.9
3522   0    1.9
3523   0    1.9
3526   0    1.9
3527   0    1.9
3624   0    1.9
3625   0    1.9
3628   0    1.9
3724   0    1.9
3725   0    1.9
3726   0    1.9
3728   0    1.9
3729   0    1.9
3825   0    1.9
3826   0    1.9
3827   0    1.9
3829   0    1.9
3830   0    1.9
3926   0    1.9
3927   0    1.9
3931   0    1.9
4028   0    1.9
4128   0    1.9
4129   0    1.9
4229   0    1.9
4230   0    1.9
4330   0    1.9
4331   0    1.9
4428   0    1.9
4432   0    1.9
4433   0    1.9
4528   0    1.9
4529   0    1.9
4532   0    1.9
4533   0    1.9
4534   0    1.9
4629   0    1.9
4630   0    1.9
4633   0    1.9
4634   0    1.9
4635   0    1.9
4731   0    1.9
4734   0    1.9
4735   0    1.9
4832   0    1.9
4932   0    1.9
4933   0    1.9
4936   0    1.9
4937   0    1.9
5033   0    1.9
5034   0    1.9
5037   0    1.9
5038   0    1.9
5134   0    1.9
5135   0    1.9
5138   0    1.9
5139   0    1.9
5236   0    1.9
5237   0    1.9
5336   0    1.9
5337   0    1.9
5338   0    1.9
5437   0    1.9
5438   0    1.9
5439   0    1.9
5538   0    1.9
5539   0    1.9
